^C:\USERS\ФАИЛЬ\SOURCE\REPOS\SKILLBOXCONSOLECPP\SKILLBOXCONSOLECPP\DEBUG\HELPERS.OBJ|C:\USERS\ФАИЛЬ\SOURCE\REPOS\SKILLBOXCONSOLECPP\SKILLBOXCONSOLECPP\DEBUG\SKILLBOXCONSOLECPP.OBJ
C:\USERS\Фаиль\SOURCE\REPOS\SKILLBOXCONSOLECPP\DEBUG\SKILLBOXCONSOLECPP.EXE
C:\USERS\Фаиль\SOURCE\REPOS\SKILLBOXCONSOLECPP\DEBUG\SKILLBOXCONSOLECPP.ILK
C:\USERS\ФАИЛЬ\SOURCE\REPOS\SKILLBOXCONSOLECPP\DEBUG\SKILLBOXCONSOLECPP.PDB
